Th-232 -------------------------------------------------------------------------
  Zr-95,5.4494 ± 2.9 %,,1.5399e-02 ± 37.3 %,
  Nb-95,5.4461 ± 2.9 %,,
 Ru-103,0.1518 ± 6.3 %,,
 Ru-106,0.0532 ± 5.7 %,,3.4898e-06 ± 38.0 %,
 Rh-106,0.0532 ± 5.7 %,,
 Cs-137,6.1790 ± 5.1 %,,2.4501e-03 ± 35.0 %,
Ba-137m,5.8329 ± 5.2 %,,
 Ba-140,7.6222 ± 3.2 %,,2.9420e-02 ± 40.6 %,
 La-140,7.6222 ± 3.2 %,,
 Ce-144,7.6334 ± 6.1 %,,1.7491e-03 ± 42.4 %,
U-235 --------------------------------------------------------------------------
  Zr-95,6.4589 ± 1.3 %,6.5042 ± 1.0 %,9.7309e-02 ± 36.6 %,1.0044e-01 ± 36.8 %
  Nb-95,6.4553 ± 1.3 %,6.5006 ± 1.0 %,2.2939e-04 ± 37.0 %,2.2213e-04 ± 37.1 %
 Ru-103,3.2809 ± 1.4 %,3.1118 ± 2.1 %,1.5966e-04 ± 35.5 %,1.0372e-04 ± 36.4 %
 Ru-106,0.4660 ± 7.6 %,0.4096 ± 2.3 %,1.5698e-02 ± 35.6 %,5.4091e-03 ± 79.9 %
 Rh-106,0.4660 ± 7.6 %,0.4096 ± 2.3 %,7.6175e-07 ± 37.1 %,5.2533e-07 ± 46.2 %
 Cs-137,5.8572 ± 1.9 %,6.0897 ± 1.0 %,8.3295e-02 ± 35.5 %,8.1095e-02 ± 35.2 %
Ba-137m,5.5295 ± 2.1 %,5.7492 ± 1.4 %,2.4791e-04 ± 35.9 %,4.9138e-04 ± 35.6 %
 Ba-140,6.0586 ± 1.1 %,6.3444 ± 1.0 %,4.9120e-01 ± 32.0 %,5.0254e-01 ± 31.6 %
 La-140,6.0594 ± 1.1 %,6.3450 ± 1.0 %,8.2570e-04 ± 35.5 %,6.4628e-04 ± 35.2 %
 Ce-144,5.1578 ± 1.8 %,5.4781 ± 0.9 %,4.2616e-02 ± 36.3 %,4.1193e-02 ± 35.9 %
Np-237 -------------------------------------------------------------------------
  Zr-95,5.6715 ± 2.7 %,,1.2618e-01 ± 35.5 %,
  Nb-95,5.6684 ± 2.7 %,,2.8734e-04 ± 36.3 %,
 Ru-103,5.3778 ± 11.2 %,,7.8595e-04 ± 35.3 %,
 Ru-106,2.2333 ± 10.8 %,,1.2009e-01 ± 35.4 %,
 Rh-106,2.2335 ± 10.8 %,,2.2083e-04 ± 36.5 %,
 Cs-137,6.2129 ± 3.6 %,,2.9840e-01 ± 34.6 %,
Ba-137m,5.8651 ± 3.7 %,,1.2288e-04 ± 36.3 %,
 Ba-140,5.7593 ± 2.0 %,,4.0794e-01 ± 32.8 %,
 La-140,5.7674 ± 2.0 %,,8.1060e-03 ± 35.6 %,
 Ce-144,4.1743 ± 4.8 %,,3.7653e-02 ± 34.2 %,
U-238 --------------------------------------------------------------------------
  Zr-95,5.2506 ± 1.6 %,,1.0941e-02 ± 38.6 %,
  Nb-95,5.2475 ± 1.6 %,,
 Ru-103,6.0331 ± 1.8 %,,3.6712e-05 ± 34.8 %,
 Ru-106,2.5063 ± 5.3 %,,1.3091e-02 ± 37.8 %,
 Rh-106,2.5064 ± 5.3 %,,5.2394e-05 ± 38.0 %,
 Cs-137,6.0045 ± 2.3 %,,2.5145e-03 ± 34.8 %,
Ba-137m,5.6682 ± 2.5 %,,
 Ba-140,6.0457 ± 1.3 %,,1.9061e-02 ± 38.3 %,
 La-140,6.0457 ± 1.3 %,,
 Ce-144,4.6916 ± 2.3 %,,1.2708e-03 ± 38.1 %,
Pu-239 -------------------------------------------------------------------------
  Zr-95,4.6909 ± 2.5 %,4.8805 ± 1.1 %,1.7132e-01 ± 34.8 %,1.7161e-01 ± 35.3 %
  Nb-95,4.6890 ± 2.5 %,4.8781 ± 1.1 %,7.9095e-04 ± 36.0 %,3.9415e-04 ± 36.2 %
 Ru-103,6.5709 ± 2.5 %,6.8709 ± 1.2 %,1.6105e-03 ± 35.7 %,1.6865e-03 ± 35.0 %
 Ru-106,4.0375 ± 7.8 %,4.3404 ± 2.3 %,4.1824e-01 ± 34.0 %,5.2773e-01 ± 27.1 %
 Rh-106,4.0394 ± 7.8 %,4.3426 ± 2.3 %,1.8578e-03 ± 37.4 %,2.1687e-03 ± 33.4 %
 Cs-137,6.3098 ± 2.2 %,6.5796 ± 1.2 %,5.0890e-01 ± 34.4 %,4.7400e-01 ± 34.8 %
Ba-137m,5.9624 ± 2.4 %,6.2163 ± 1.5 %,5.9273e-03 ± 36.5 %,5.1692e-03 ± 36.1 %
 Ba-140,5.2916 ± 1.5 %,5.2880 ± 1.1 %,1.3323e+00 ± 25.0 %,1.2357e+00 ± 26.1 %
 La-140,5.3067 ± 1.5 %,5.2989 ± 1.1 %,1.5084e-02 ± 34.4 %,1.0926e-02 ± 34.4 %
 Ce-144,3.4994 ± 1.7 %,3.7623 ± 0.9 %,1.8595e-01 ± 31.6 %,1.8624e-01 ± 31.9 %

